Task3/gpio_fullsuite.vcd
$date
	Sun Feb 01 16:44:15 2026
$end
$version
	Icarus Verilog
$end
$timescale
	1ns
$end
$scope module gpio_tb $end
$var wire 32 ! rdata [31:0] $end
$var wire 32 " gpio_out [31:0] $end
$var wire 32 # gpio_oe [31:0] $end
$var reg 1 $ clk $end
$var reg 32 % gpio_addr [31:0] $end
$var reg 1 & gpio_en $end
$var reg 32 ' gpio_in [31:0] $end
$var reg 1 ( rst_n $end
$var reg 32 ) wdata [31:0] $end
$var reg 1 * write_enable $end
$scope module DUT $end
$var wire 1 $ clk $end
$var wire 32 + gpio_addr [31:0] $end
$var wire 1 & gpio_en $end
$var wire 32 , gpio_in [31:0] $end
$var wire 1 ( rst_n $end
$var wire 32 - wdata [31:0] $end
$var wire 1 * write_enable $end
$var reg 8 . addr_offset [7:0] $end
$var reg 32 / gpio_oe [31:0] $end
$var reg 32 0 gpio_out [31:0] $end
$var reg 32 1 gpio_out_value [31:0] $end
$var reg 32 2 gpio_read_value [31:0] $end
$var reg 32 3 rdata [31:0] $end
$scope begin $ivl_for_loop0 $end
$var integer 32 4 i [31:0] $end
$upscope $end
$scope begin $ivl_for_loop1 $end
$var integer 32 5 i [31:0] $end
$upscope $end
$scope begin $ivl_for_loop2 $end
$var integer 32 6 i [31:0] $end
$upscope $end
$upscope $end
$upscope $end
$scope module gpio_tb $end
$scope module DUT $end
$var reg 32 7 \gpio_in_reg[0] [31:0] $end
$upscope $end
$upscope $end
$scope module gpio_tb $end
$scope module DUT $end
$var reg 32 8 \gpio_in_reg[4] [31:0] $end
$upscope $end
$upscope $end
$scope module gpio_tb $end
$scope module DUT $end
$var reg 32 9 \gpio_in_reg[8] [31:0] $end
$upscope $end
$upscope $end
$enddefinitions $end
$comment Show the parameter values. $end
$dumpall
$end
#0
$dumpvars
bx 9
bx 8
bx 7
bx 6
b100000 5
bx 4
bx 3
bx 2
bx 1
bx 0
bx /
b0 .
b0 -
b0 ,
b0 +
0*
b0 )
0(
b0 '
0&
b0 %
0$
bx #
bx "
bx !
$end
#10
b0 "
b0 0
b0 7
bx0000 #
bx0000 /
b100 6
1$
#20
0$
#30
b0 7
b100 6
1$
#40
0$
#50
b10101010101010101010101010101010 8
b100 .
1$
b10101010101010101010101010101010 )
b10101010101010101010101010101010 -
b100000000000000000000000000100 %
b100000000000000000000000000100 +
1*
1&
1(
#60
0$
#70
1$
0*
0&
#80
0$
#90
1$
#100
0$
#110
b10001010101010001010101010101010 "
b10001010101010001010101010101010 0
b11011110101011011011111011101111 7
b10001010101010001010101010101010 1
b100000 5
b0 .
1$
b11011110101011011011111011101111 )
b11011110101011011011111011101111 -
b100000000000000000000000000000 %
b100000000000000000000000000000 +
1*
1&
#120
0$
#130
1$
0*
0&
#140
0$
#150
1$
#160
0$
#170
b10001010101010001010101010101010 !
b10001010101010001010101010101010 3
b10001010101010001010101010101010 9
b1x1x1x1x1x1x1x1x1x1x1x1x1x1x1010 #
b1x1x1x1x1x1x1x1x1x1x1x1x1x1x1010 /
b10001010101010001010101010101010 2
b100000 4
b1000 .
1$
b11001010111111101011101010111110 '
b11001010111111101011101010111110 ,
b100000000000000000000000001000 %
b100000000000000000000000001000 +
1&
#180
0$
#190
1$
0&
#200
0$
#210
1$
#220
0$
#230
1$
#240
0$
#250
b1010101010101010101010101010101 8
b100 .
1$
b1010101010101010101010101010101 )
b1010101010101010101010101010101 -
b100000000000000000000000000100 %
b100000000000000000000000000100 +
1*
1&
#260
0$
#270
1$
0*
0&
#280
0$
#290
1$
#300
0$
#310
b10001111101011011010111110101111 "
b10001111101011011010111110101111 0
b10100101101001011010010110100101 7
b10001111101011011010111110101111 1
b100000 5
b0 .
1$
b10100101101001011010010110100101 )
b10100101101001011010010110100101 -
b100000000000000000000000000000 %
b100000000000000000000000000000 +
1*
1&
#320
0$
#330
1$
0*
0&
#340
0$
#350
1$
#360
0$
#370
b10001111101011011010111110101111 !
b10001111101011011010111110101111 3
b10001111101011011010111110101111 9
b10001111101011011010111110101111 2
b11111111111111111111111111111111 #
b11111111111111111111111111111111 /
b100000 4
b1000 .
1$
b10010001101000101011001111000 '
b10010001101000101011001111000 ,
b100000000000000000000000001000 %
b100000000000000000000000001000 +
1&
#380
0$
#390
1$
0&
#400
0$
#410
1$
#420
0$
#430
1$
#440
0$
#450
b11111111111111110000000000000000 8
b100 .
1$
b11111111111111110000000000000000 )
b11111111111111110000000000000000 -
b100000000000000000000000000100 %
b100000000000000000000000000100 +
1*
1&
#460
0$
#470
1$
0*
0&
#480
0$
#490
1$
#500
0$
#510
b10100101101001011010010110100101 "
b10100101101001011010010110100101 0
b10100101101001011010010110100101 7
b10100101101001011010010110100101 1
b100000 5
b0 .
1$
b10100101101001011010010110100101 )
b10100101101001011010010110100101 -
b100000000000000000000000000000 %
b100000000000000000000000000000 +
1*
1&
#520
0$
#530
1$
0*
0&
#540
0$
#550
1$
#560
0$
#570
b10100101101001011010010110100101 !
b10100101101001011010010110100101 3
b10100101101001011010010110100101 9
b10100101101001011010010110100101 2
b100000 4
b1000 .
1$
b100000000000000000000000001000 %
b100000000000000000000000001000 +
1&
#580
0$
#590
1$
0&
#600
0$
#610
1$
#620
0$
#630
1$
#640
0$
#650
b1111111111111111 8
b100 .
1$
b1111111111111111 )
b1111111111111111 -
b100000000000000000000000000100 %
b100000000000000000000000000100 +
1*
1&
#660
0$
#670
1$
0*
0&
#680
0$
#690
1$
#700
0$
#710
b10100101101001011011111011101111 "
b10100101101001011011111011101111 0
b11011110101011011011111011101111 7
b10100101101001011011111011101111 1
b100000 5
b0 .
1$
b11011110101011011011111011101111 )
b11011110101011011011111011101111 -
b100000000000000000000000000000 %
b100000000000000000000000000000 +
1*
1&
#720
0$
#730
1$
0*
0&
#740
0$
#750
1$
#760
0$
#770
b10100101101001011011111011101111 !
b10100101101001011011111011101111 3
b10100101101001011011111011101111 9
b10100101101001011011111011101111 2
b100000 4
b1000 .
1$
b11001010111111101011101010111110 '
b11001010111111101011101010111110 ,
b100000000000000000000000001000 %
b100000000000000000000000001000 +
1&
#780
0$
#790
1$
0&
