Task3/riscv_gpio_soc_task3.vcd
$date
	Sun Feb 01 18:23:17 2026
$end
$version
	Icarus Verilog
$end
$timescale
	1ns
$end
$scope module femtoPLL $end
$var wire 1 ! clk $end
$var wire 1 " pclk $end
$var parameter 32 # freq $end
$scope begin genblk1 $end
$upscope $end
$upscope $end
$scope module riscv_tb $end
$var wire 1 $ tx $end
$var wire 5 % leds [4:0] $end
$var reg 1 & clk $end
$var reg 1 ' reset $end
$var reg 1 ( rx $end
$scope module riscv_soc $end
$var wire 1 & CLK $end
$var wire 32 ) GPIO_wdata [31:0] $end
$var wire 1 ' RESET $end
$var wire 1 ( RXD $end
$var wire 32 * gpio_in [31:0] $end
$var wire 1 + isGPIO $end
$var wire 1 , uart_valid $end
$var wire 1 - uart_ready $end
$var wire 1 . resetn $end
$var wire 8 / offset [7:0] $end
$var wire 1 0 mem_wstrb $end
$var wire 30 1 mem_wordaddr [29:0] $end
$var wire 4 2 mem_wmask [3:0] $end
$var wire 32 3 mem_wdata [31:0] $end
$var wire 1 4 mem_rstrb $end
$var wire 32 5 mem_rdata [31:0] $end
$var wire 32 6 mem_addr [31:0] $end
$var wire 1 7 isRAM $end
$var wire 1 8 isIO $end
$var wire 1 9 isGPIO_block $end
$var wire 32 : gpio_out_enable [31:0] $end
$var wire 32 ; gpio_out [31:0] $end
$var wire 1 < clk_int $end
$var wire 1 = clk $end
$var wire 1 $ TXD $end
$var wire 32 > RAM_rdata [31:0] $end
$var wire 32 ? IO_rdata [31:0] $end
$var wire 32 @ GPIO_rdata [31:0] $end
$var parameter 32 A IO_LEDS_bit $end
$var parameter 32 B IO_UART_CNTL_bit $end
$var parameter 32 C IO_UART_DAT_bit $end
$var reg 5 D LEDS [4:0] $end
$scope module CPU $end
$var wire 1 E LOAD_sign $end
$var wire 32 F aluIn1 [31:0] $end
$var wire 32 G mem_rdata [31:0] $end
$var wire 1 H resetn $end
$var wire 1 I writeBackEn $end
$var wire 32 J writeBackData [31:0] $end
$var wire 32 K shifter_in [31:0] $end
$var wire 32 L shifter [31:0] $end
$var wire 5 M shamt [4:0] $end
$var wire 5 N rs2Id [4:0] $end
$var wire 5 O rs1Id [4:0] $end
$var wire 5 P rdId [4:0] $end
$var wire 32 Q nextPC [31:0] $end
$var wire 1 R mem_halfwordAccess $end
$var wire 1 S mem_byteAccess $end
$var wire 32 T loadstore_addr [31:0] $end
$var wire 32 U leftshift [31:0] $end
$var wire 1 V isStore $end
$var wire 1 W isSYSTEM $end
$var wire 1 X isLoad $end
$var wire 1 Y isLUI $end
$var wire 1 Z isJALR $end
$var wire 1 [ isJAL $end
$var wire 1 \ isBranch $end
$var wire 1 ] isAUIPC $end
$var wire 1 ^ isALUreg $end
$var wire 1 _ isALUimm $end
$var wire 7 ` funct7 [6:0] $end
$var wire 3 a funct3 [2:0] $end
$var wire 1 = clk $end
$var wire 32 b aluPlus [31:0] $end
$var wire 33 c aluMinus [32:0] $end
$var wire 32 d aluIn2 [31:0] $end
$var wire 32 e Uimm [31:0] $end
$var wire 32 f Simm [31:0] $end
$var wire 4 g STORE_wmask [3:0] $end
$var wire 32 h PCplusImm [31:0] $end
$var wire 32 i PCplus4 [31:0] $end
$var wire 1 j LTU $end
$var wire 1 k LT $end
$var wire 16 l LOAD_halfword [15:0] $end
$var wire 32 m LOAD_data [31:0] $end
$var wire 8 n LOAD_byte [7:0] $end
$var wire 32 o Jimm [31:0] $end
$var wire 32 p Iimm [31:0] $end
$var wire 1 q EQ $end
$var wire 32 r Bimm [31:0] $end
$var parameter 32 s EXECUTE $end
$var parameter 32 t FETCH_INSTR $end
$var parameter 32 u FETCH_REGS $end
$var parameter 32 v LOAD $end
$var parameter 32 w STORE $end
$var parameter 32 x WAIT_DATA $end
$var parameter 32 y WAIT_INSTR $end
$var reg 32 z PC [31:0] $end
$var reg 32 { aluOut [31:0] $end
$var reg 32 | instr [31:0] $end
$var reg 32 } mem_addr [31:0] $end
$var reg 1 4 mem_rstrb $end
$var reg 32 ~ mem_wdata [31:0] $end
$var reg 4 !" mem_wmask [3:0] $end
$var reg 32 "" rs1 [31:0] $end
$var reg 32 #" rs2 [31:0] $end
$var reg 3 $" state [2:0] $end
$var reg 1 %" takeBranch $end
$var integer 32 &" i [31:0] $end
$scope function flip32 $end
$var reg 32 '" x [31:0] $end
$upscope $end
$upscope $end
$scope module CW $end
$var wire 1 ' RESET $end
$var wire 1 . resetn $end
$var wire 1 = clk $end
$var wire 1 < CLK $end
$var parameter 32 (" SLOW $end
$scope begin genblk1 $end
$var reg 16 )" reset_cnt [15:0] $end
$upscope $end
$upscope $end
$scope module GPIO $end
$var wire 1 = clk $end
$var wire 32 *" gpio_addr [31:0] $end
$var wire 1 + gpio_en $end
$var wire 32 +" gpio_in [31:0] $end
$var wire 1 ," rst_n $end
$var wire 32 -" wdata [31:0] $end
$var wire 1 ." write_enable $end
$var reg 8 /" addr_offset [7:0] $end
$var reg 32 0" gpio_oe [31:0] $end
$var reg 32 1" gpio_out [31:0] $end
$var reg 32 2" gpio_out_value [31:0] $end
$var reg 32 3" gpio_read_value [31:0] $end
$var reg 32 4" rdata [31:0] $end
$scope begin $ivl_for_loop0 $end
$var integer 32 5" i [31:0] $end
$upscope $end
$scope begin $ivl_for_loop1 $end
$var integer 32 6" i [31:0] $end
$upscope $end
$scope begin $ivl_for_loop2 $end
$var integer 32 7" i [31:0] $end
$upscope $end
$upscope $end
$scope module RAM $end
$var wire 1 = clk $end
$var wire 32 8" mem_addr [31:0] $end
$var wire 1 9" mem_rstrb $end
$var wire 32 :" mem_wdata [31:0] $end
$var wire 4 ;" mem_wmask [3:0] $end
$var wire 30 <" word_addr [29:0] $end
$var reg 32 =" mem_rdata [31:0] $end
$upscope $end
$scope module UART $end
$var wire 1 = i_clk $end
$var wire 8 >" i_data [7:0] $end
$var wire 1 ?" i_rst $end
$var wire 1 , i_valid $end
$var parameter 64 @" START_VALUE $end
$var parameter 32 A" WIDTH $end
$var parameter 32 B" baud_rate $end
$var parameter 64 C" clk_freq_hz $end
$var reg 12 D" cnt [11:0] $end
$var reg 10 E" data [9:0] $end
$var reg 1 - o_ready $end
$var reg 1 $ o_uart_tx $end
$upscope $end
$scope module hfosc $end
$var wire 1 F" CLKHFEN $end
$var wire 1 G" CLKHFPU $end
$var parameter 32 H" CLKHF_DIV $end
$var reg 1 < CLKHF $end
$upscope $end
$upscope $end
$upscope $end
$scope module riscv_tb $end
$scope module riscv_soc $end
$scope module CPU $end
$scope function flip32 $end
$upscope $end
$upscope $end
$scope module CW $end
$scope begin genblk1 $end
$upscope $end
$upscope $end
$scope module GPIO $end
$scope begin $ivl_for_loop0 $end
$upscope $end
$scope begin $ivl_for_loop1 $end
$upscope $end
$scope begin $ivl_for_loop2 $end
$upscope $end
$upscope $end
$scope module RAM $end
$upscope $end
$scope module UART $end
$upscope $end
$scope module hfosc $end
$upscope $end
$upscope $end
$upscope $end
$enddefinitions $end
$comment Show the parameter values. $end
$dumpall
b110000011000100011000100110000 H"
b101101110001101100000000 C"
b10010110000000 B"
b1011 A"
b10011100010 @"
b0 ("
b1 y
b101 x
b110 w
b100 v
b10 u
b0 t
b11 s
b1 C
b10 B
b0 A
b101000 #
$end
#0
$dumpvars
1G"
1F"
bx E"
b0 D"
1?"
bx >"
bx ="
b0 <"
b0 ;"
bx :"
19"
b0 8"
bx 7"
b100000 6"
bx 5"
bx 4"
bx 3"
bx 2"
bx 1"
bx 0"
b0 /"
0."
bx -"
1,"
bz +"
b0 *"
b0 )"
bx '"
b100000 &"
x%"
b0 $"
bx #"
bx ""
b0 !"
bx ~
b0 }
bx |
bx {
b0 z
bx0 r
xq
bx p
bx0 o
bx n
bx m
bx l
xk
xj
b100 i
bx h
bx g
bx f
bx000000000000 e
bx d
bx c
bx b
bx a
bx `
x_
x^
x]
x\
x[
xZ
xY
xX
xW
xV
bx U
bx T
xS
xR
bx Q
bx P
bx O
bx N
bx M
bx L
bx K
bx J
0I
1H
bx G
bx F
xE
bx D
bx @
b0 ?
bx >
0=
0<
bx ;
bx :
09
08
17
b0 6
bx 5
14
bx 3
b0 2
b0 1
00
b0 /
0.
x-
0,
0+
bz *
bx )
0(
1'
0&
bx %
x$
z"
z!
$end
#5
1&
#10
0&
#15
1&
#20
0&
#25
1&
#30
0&
#35
1&
#40
0&
#42
bx0xxx m
bx0xxx n
b0xxxxx0xxx l
09"
b10000000000000110110111 5
b10000000000000110110111 G
1."
04
b1 $"
b10000000000000110110111 >
b10000000000000110110111 ="
b111111111111 D"
1=
1<
#45
1&
#50
0&
0'
#55
1&
#60
0&
#65
1&
#70
0&
#75
1&
#80
0&
#84
0=
0<
#85
1&
#90
0&
#95
1&
#100
0&
#105
1&
#110
0&
#115
1&
#120
0&
#125
1&
#126
bx m
bx n
bx l
bx0000 U
b0xxxxxxxxxxxxxxxxxxxxxxxxxxxx '"
b0xxxxxxxxxxxxxxxxxxxxxxxxxxxx L
x,
bx 5
bx G
b0x000000000 ?
x+
b100 d
b10000000000000000000000 J
b100 Q
bx /"
bx <"
bx /
x9
x7
x8
bx 1
1S
0R
b100 M
b10000000000000000000000 h
bx 6
bx }
bx *"
bx 8"
0^
0_
0\
0Z
0[
0]
1Y
0X
0V
0W
b10000000000000000000000 e
b100 p
b11 f
b100000000010 r
b100 o
b0 O
b100 N
b11 P
b0 a
b0 `
b0xxxxxxxxx E"
b10011100010 D"
b10 $"
b10000000000000110110111 |
b1 )"
1=
1<
#130
0&
#135
1&
#140
0&
#145
1&
#150
0&
#155
1&
#160
0&
#165
1&
#168
0=
0<
#170
0&
#175
1&
#180
0&
#185
1&
#190
0&
#195
1&
#200
0&
#205
1&
#210
1E
b11111111111111111111111110110111 m
b10110111 n
b110110111 l
b10000000000000110110111 5
b10000000000000110110111 G
0,
b0 ?
1I
b1 g
0+
1k
b0 U
b100 /"
b1 <"
b100 /
09
17
08
b1 1
b0 >"
0%"
b0 L
b100 6
b100 }
b100 *"
b100 8"
b0 )
b0 3
b0 ~
b0 -"
b0 :"
1j
0q
b100 {
b0 '"
b0 K
b11 $"
b0 #"
b100 T
b100 b
b111111111111111111111111111111100 c
b0 F
b0 ""
b10011100001 D"
b10 )"
0&
1=
1<
#215
1&
#220
0&
#225
1&
#230
0&
#235
1&
#240
0&
#245
1&
#250
0&
#252
0=
0<
#255
1&
#260
0&
#265
1&
#270
0&
#275
1&
#280
0&
#285
1&
#290
0&
#294
0I
19"
b1000 Q
0."
14
b10011100000 D"
b0 $"
b10000000000000000000100 h
b1000 i
b100 z
b11 )"
1=
1<
#295
1&
#300
0&
#305
1&
#310
0&
#315
1&
#320
0&
#325
1&
#330
0&
#335
1&
#336
0=
0<
#340
0&
#345
1&
#350
0&
#355
1&
#360
0&
#365
1&
#370
0&
#375
1&
#378
0E
b110111 m
b110111 n
b10000100110111 l
09"
b10000100110111 5
b10000100110111 G
1."
04
b1 $"
b10000100110111 >
b10000100110111 ="
b10011011111 D"
b100 )"
1=
1<
#380
0&
#385
1&
#390
0&
#395
1&
#400
0&
#405
1&
#410
0&
#415
1&
#420
0&
0=
0<
#425
1&
#430
0&
#435
1&
#440
0&
#445
1&
#450
0&
#455
1&
#460
0&
#462
0k
0j
1q
b100000 6"
b0 /"
b0 <"
b0 /
b0 1
b10000000000100 h
b10000000000000 J
b0 c
b0 6
b0 }
b0 *"
b0 8"
b10000100110111 m
b1111 g
b0 b
b0 d
b0 T
0S
b0 M
b0 {
b10000000000000 e
b0 p
b10 f
b10 r
b10000000000000 o
b0 N
b10 P
b10 a
b10011011110 D"
b10 $"
b10000100110111 |
b101 )"
1=
1<
#465
1&
#470
0&
#475
1&
#480
0&
#485
1&
#490
0&
#495
1&
#500
0&
#504
0=
0<
#505
1&
#510
0&
#515
1&
#520
0&
#525
1&
#530
0&
#535
1&
#540
0&
#545
1&
#546
1I
b11 $"
b10011011101 D"
b110 )"
1=
1<
#550
0&
#555
1&
#560
0&
#565
1&
#570
0&
#575
1&
#580
0&
#585
1&
#588
0=
0<
#590
0&
#595
1&
#600
0&
#605
1&
#610
0&
#615
1&
#620
0&
#625
1&
#630
0I
19"
b11111111111111111111111111111111 :
b11111111111111111111111111111111 0"
b100000 5"
b1000 /"
b10 <"
b1000 /
b10 1
b1100 Q
0."
14
b1000 6
b1000 }
b1000 *"
b1000 8"
b10011011100 D"
b0 $"
b10000000001000 h
b1100 i
b1000 z
b111 )"
0&
1=
1<
#635
1&
#640
0&
#645
1&
#650
0&
#655
1&
#660
0&
#665
1&
#670
0&
#672
0=
0<
#675
1&
#680
0&
#685
1&
#690
0&
#695
1&
#700
0&
#705
1&
#710
0&
#714
b10011 n
b100010011 l
b10000000000000010000000100010011 m
09"
b10000000000000010000000100010011 5
b10000000000000010000000100010011 G
1."
04
b1 $"
b10000000000000010000000100010011 >
b10000000000000010000000100010011 ="
b10011011011 D"
b1000 )"
1=
1<
#715
1&
#720
0&
#725
1&
#730
0&
#735
1&
#740
0&
#745
1&
#750
0&
#755
1&
#756
0=
0<
#760
0&
#765
1&
#770
0&
#775
1&
#780
0&
#785
1&
#790
0&
#795
1&
#798
b0 n
b0 l
b0 5
b0 G
1j
0q
07
18
b10000000000000010000000000001000 h
b11111111111111111111100000000000 J
b100000000000000000000100000000000 c
b11111111111111111111100000000000 {
b0 m
b1 g
b100000 6"
b0 /"
b111111111111111111111000000000 <"
b0 /
b111111111111111111111000000000 1
b11111111111111111111100000000000 b
b11111111111111111111100000000000 d
b11111111111111111111100000000000 T
1S
0%"
b11111111111111111111100000000000 6
b11111111111111111111100000000000 }
b11111111111111111111100000000000 *"
b11111111111111111111100000000000 8"
1_
0Y
b10000000000000010000000000000000 e
b11111111111111111111100000000000 p
b11111111111111111111100000000010 f
b11111111111111111111000000000010 r
b11111111111100010000000000000000 o
b10 O
b0 a
b1000000 `
b10011011010 D"
b10 $"
b10000000000000010000000100010011 |
b1001 )"
1=
1<
#800
0&
#805
1&
#810
0&
#815
1&
#820
0&
#825
1&
#830
0&
#835
1&
#840
0&
0=
0<
#845
1&
#850
0&
#855
1&
#860
0&
#865
1&
#870
0&
#875
1&
#880
0&
#882
b10011 m
b10011 n
b100010011 l
b1100000000000 J
b10000000000000010000000100010011 5
b10000000000000010000000100010011 G
1I
b1000000000000000000 U
b100000 6"
b11000000000 <"
17
08
b11000000000 1
b10000000000000 L
b1100000000000 6
b1100000000000 }
b1100000000000 *"
b1100000000000 8"
b1100000000000 {
b10000000000000 '"
b10000000000000 K
b11 $"
b1100000000000 T
b1100000000000 b
b100000000000000000010100000000000 c
b10000000000000 F
b10000000000000 ""
b10011011001 D"
b1010 )"
1=
1<
#885
1&
#890
0&
#895
1&
#900
0&
#905
1&
#910
0&
#915
1&
#920
0&
#924
0=
0<
#925
1&
#930
0&
#935
1&
#940
0&
#945
1&
#950
0&
#955
1&
#960
0&
#965
1&
#966
0I
19"
b1100 /"
b11 <"
b1100 /
b11 1
b10000 Q
0."
14
b1100 6
b1100 }
b1100 *"
b1100 8"
b10011011000 D"
b0 $"
b10000000000000010000000000001100 h
b10000 i
b1100 z
b1011 )"
1=
1<
#970
0&
#975
1&
#980
0&
#985
1&
#990
0&
#995
1&
#1000
0&
#1005
1&
#1008
0=
0<
#1010
0&
#1015
1&
#1020
0&
#1025
1&
#1030
0&
#1035
1&
#1040
0&
#1045
1&
#1050
1E
b11111111111111111111111111101111 m
b11101111 n
b11101111 l
09"
b101110000000000000011101111 5
b101110000000000000011101111 G
1."
04
b1 $"
b101110000000000000011101111 >
b101110000000000000011101111 ="
b10011010111 D"
b1100 )"
0&
1=
1<
#1055
1&
#1060
0&
#1065
1&
#1070
0&
#1075
1&
#1080
0&
#1085
1&
#1090
0&
#1092
0=
0<
#1095
1&
#1100
0&
#1105
1&
#1110
0&
#1115
1&
#1120
0&
#1125
1&
#1130
0&
#1134
b0x000000000 ?
b0 U
b0 '"
b0 L
0j
b1101000 Q
b10000 J
b1111110100100 c
b10000001011100 {
b100000 6"
b1011100 /"
b100000010111 <"
b1011100 /
b100000010111 1
b10000001011100 b
b1011100 d
b10000001011100 T
b11100 M
b1101000 h
b10000001011100 6
b10000001011100 }
b10000001011100 *"
b10000001011100 8"
0_
1[
b101110000000000000000000000 e
b1011100 p
b1000001 f
b100001000000 r
b1011100 o
b0 O
b11100 N
b1 P
b10 `
b10011010110 D"
b10 $"
b101110000000000000011101111 |
b1101 )"
1=
1<
#1135
1&
#1140
0&
#1145
1&
#1150
0&
#1155
1&
#1160
0&
#1165
1&
#1170
0&
#1175
1&
#1176
0=
0<
#1180
0&
#1185
1&
#1190
0&
#1195
1&
#1200
0&
#1205
1&
#1210
0&
#1215
1&
#1218
1I
b10111 <"
b10111 1
1k
b1011100 6
b1011100 }
b1011100 *"
b1011100 8"
1j
b1011100 {
b0 K
b11 $"
b1011100 T
b1011100 b
b111111111111111111111111110100100 c
b0 F
b0 ""
b10011010101 D"
b1110 )"
1=
1<
#1220
0&
#1225
1&
#1230
0&
#1235
1&
#1240
0&
#1245
1&
#1250
0&
#1255
1&
#1260
0&
0=
0<
#1265
1&
#1270
0&
#1275
1&
#1280
0&
#1285
1&
#1290
0&
#1295
1&
#1300
0&
#1302
b0 ?
0I
19"
b1101000 /"
b11010 <"
b1101000 /
b11010 1
0."
14
b1101000 6
b1101000 }
b1101000 *"
b1101000 8"
b11000100 Q
b1101100 J
b10011010100 D"
b0 $"
b11000100 h
b1101100 i
b1101000 z
b1111 )"
1=
1<
#1305
1&
#1310
0&
#1315
1&
#1320
0&
#1325
1&
#1330
0&
#1335
1&
#1340
0&
#1344
0=
0<
#1345
1&
#1350
0&
#1355
1&
#1360
0&
#1365
1&
#1370
0&
#1375
1&
#1380
0&
#1385
1&
#1386
0E
b10011 m
b10011 n
b100010011 l
09"
b11111110000000010000000100010011 5
b11111110000000010000000100010011 G
1."
04
b1 $"
b11111110000000010000000100010011 >
b11111110000000010000000100010011 ="
b10011010011 D"
b10000 )"
1=
1<
#1390
0&
#1395
1&
#1400
0&
#1405
1&
#1410
0&
#1415
1&
#1420
0&
#1425
1&
#1428
0=
0<
#1430
0&
#1435
1&
#1440
0&
#1445
1&
#1450
0&
#1455
1&
#1460
0&
#1465
1&
#1470
b0 m
b0 n
b0 l
b0 5
b0 G
0k
b0 ?
07
18
b11111111111111111111111111100000 J
b100000000000000000000000000100000 c
b11111111111111111111111111100000 {
b1101100 Q
b11100000 /"
b111111111111111111111111111000 <"
b11100000 /
b111111111111111111111111111000 1
b11111111111111111111111111100000 b
b11111111111111111111111111100000 d
b11111111111111111111111111100000 T
b0 M
b11111110000000010000000001101000 h
b11111111111111111111111111100000 6
b11111111111111111111111111100000 }
b11111111111111111111111111100000 *"
b11111111111111111111111111100000 8"
1_
0[
b11111110000000010000000000000000 e
b11111111111111111111111111100000 p
b11111111111111111111111111100010 f
b11111111111111111111011111100010 r
b11111111111100010000011111100000 o
b10 O
b0 N
b10 P
b1111111 `
b10011010010 D"
b10 $"
b11111110000000010000000100010011 |
b10001 )"
0&
1=
1<
#1475
1&
#1480
0&
#1485
1&
#1490
0&
#1495
1&
#1500
0&
#1505
1&
#1510
0&
#1512
0=
0<
#1515
1&
#1520
0&
#1525
1&
#1530
0&
#1535
1&
#1540
0&
#1545
1&
#1550
0&
#1554
b10011 m
b10011 n
b100010011 l
b1011111100000 J
b11111110000000010000000100010011 5
b11111110000000010000000100010011 G
1I
b110000000000000000000 U
b10111111000 <"
17
08
b10111111000 1
b1100000000000 L
b1011111100000 6
b1011111100000 }
b1011111100000 *"
b1011111100000 8"
b1011111100000 {
b1100000000000 '"
b1100000000000 K
b11 $"
b1011111100000 T
b1011111100000 b
b100000000000000000001100000100000 c
b1100000000000 F
b1100000000000 ""
b10011010001 D"
b10010 )"
1=
1<
#1555
1&
#1560
0&
#1565
1&
#1570
0&
#1575
1&
#1580
0&
#1585
1&
#1590
0&
#1595
1&
#1596
0=
0<
#1600
0&
#1605
1&
#1610
0&
#1615
1&
#1620
0&
#1625
1&
#1630
0&
#1635
1&
#1638
0I
19"
b1101100 /"
b11011 <"
b1101100 /
b11011 1
b1110000 Q
0."
14
b1101100 6
b1101100 }
b1101100 *"
b1101100 8"
b10011010000 D"
b0 $"
b11111110000000010000000001101100 h
b1110000 i
b1101100 z
b10011 )"
1=
1<
#1640
0&
#1645
1&
#1650
0&
#1655
1&
#1660
0&
#1665
1&
#1670
0&
#1675
1&
#1680
0&
0=
0<
#1685
1&
#1690
0&
#1695
1&
#1700
0&
#1705
1&
#1710
0&
#1715
1&
#1720
0&
#1722
b100011 m
b100011 n
b10111000100011 l
09"
b100010010111000100011 5
b100010010111000100011 G
1."
04
b1 $"
b100010010111000100011 >
b100010010111000100011 ="
b10011001111 D"
b10100 )"
1=
1<
#1725
1&
#1730
0&
#1735
1&
#1740
0&
#1745
1&
#1750
0&
#1755
1&
#1760
0&
#1764
0=
0<
#1765
1&
#1770
0&
#1775
1&
#1780
0&
#1785
1&
#1790
0&
#1795
1&
#1800
0&
#1805
1&
#1806
b0x000000000 ?
b0 J
b1100000000000000000000 U
b110000000000 '"
b110000000000 L
0j
b1011111111111 c
b100010010111000100011 m
b1111 g
b10001000 h
b11100 /"
b11000000111 <"
b11100 /
b11000000111 1
b1100000000001 b
b1 d
b1100000011100 T
0S
b1 M
b1100000011100 6
b1100000011100 }
b1100000011100 *"
b1100000011100 8"
b0 {
0_
1V
b100010010000000000000 e
b1 p
b11100 f
b11100 r
b10010100000000000 o
b1 N
b11100 P
b10 a
b0 `
b10011001110 D"
b10 $"
b100010010111000100011 |
b10101 )"
1=
1<
#1810
0&
#1815
1&
#1820
0&
#1825
1&
#1830
0&
#1835
1&
#1840
0&
#1845
1&
#1848
0=
0<
#1850
0&
#1855
1&
#1860
0&
#1865
1&
#1870
0&
#1875
1&
#1880
0&
#1885
1&
#1890
b1111110100000000000000000000 U
b11111100 /"
b10111111111 <"
b11111100 /
b10111111111 1
b10000 >"
b101111110000 L
b1011111111100 6
b1011111111100 }
b1011111111100 *"
b1011111111100 8"
b10000 )
b10000 3
b10000 ~
b10000 -"
b10000 :"
b101111110000 '"
b1011111100000 K
b11 $"
b10000 #"
b1011111111100 T
b1011111100001 b
b1011111011111 c
b1011111100000 F
b1011111100000 ""
b10011001101 D"
b10110 )"
0&
1=
1<
#1895
1&
#1900
0&
#1905
1&
#1910
0&
#1915
1&
#1920
0&
#1925
1&
#1930
0&
#1932
0=
0<
#1935
1&
#1940
0&
#1945
1&
#1950
0&
#1955
1&
#1960
0&
#1965
1&
#1970
0&
#1974
b1111 ;"
b1110100 Q
10
b1111 2
b1111 !"
b10011001100 D"
b110 $"
b10001100 h
b1110100 i
b1110000 z
b10111 )"
1=
1<
#1975
1&
#1980
0&
#1985
1&
#1990
0&
#1995
1&
#2000
0&
#2005
1&
#2010
0&
#2015
1&
#2016
0=
0<
#2020
0&
#2025
1&
#2030
0&
#2035
1&
#2040
0&
#2045
1&
#2050
0&
#2055
1&
#2058
b0 ;"
19"
b1110000 /"
b11100 <"
b1110000 /
b11100 1
00
b0 2
b0 !"
0."
14
b1110000 6
b1110000 }
b1110000 *"
b1110000 8"
b0 $"
b10011001011 D"
b11000 )"
1=
1<
#2060
0&
#2065
1&
#2070
0&
#2075
1&
#2080
0&
#2085
1&
#2090
0&
#2095
1&
#2100
0&
0=
0<
#2105
1&
#2110
0&
#2115
1&
#2120
0&
#2125
1&
#2130
0&
#2135
1&
#2140
0&
#2142
b10110000100011 l
b100000010010110000100011 m
b100000010010110000100011 5
b100000010010110000100011 G
09"
1."
04
b10011001010 D"
b100000010010110000100011 >
b100000010010110000100011 ="
b1 $"
b11001 )"
1=
1<
#2145
1&
#2150
0&
#2155
1&
#2160
0&
#2165
1&
#2170
0&
#2175
1&
#2180
0&
#2184
0=
0<
#2185
1&
#2190
0&
#2195
1&
#2200
0&
#2205
1&
#2210
0&
#2215
1&
#2220
0&
#2225
1&
#2226
b11101000000000000000000000000000 U
b10111 '"
b10111 L
b1011111011000 c
b10001000 h
b11111000 /"
b10111111110 <"
b11111000 /
b10111111110 1
b1011111101000 b
b1000 d
b1011111111000 T
b1000 M
b1011111111000 6
b1011111111000 }
b1011111111000 *"
b1011111111000 8"
b100000010010000000000000 e
b1000 p
b11000 f
b11000 r
b10010000000001000 o
b1000 N
b11000 P
b10 $"
b100000010010110000100011 |
b10011001001 D"
b11010 )"
1=
1<
#2230
0&
#2235
1&
#2240
0&
#2245
1&
#2250
0&
#2255
1&
#2260
0&
#2265
1&
#2268
0=
0<
#2270
0&
#2275
1&
#2280
0&
#2285
1&
#2290
0&
#2295
1&
#2300
0&
#2305
1&
#2310
b0 >"
b0 )
b0 3
b0 ~
b0 -"
b0 :"
b10011001000 D"
b11 $"
b0 #"
b11011 )"
0&
1=
1<
#2315
1&
#2320
0&
#2325
1&
#2330
0&
#2335
1&
#2340
0&
#2345
1&
#2350
0&
#2352
0=
0<
#2355
1&
#2360
0&
#2365
1&
#2370
0&
#2375
1&
#2380
0&
#2385
1&
#2390
0&
#2394
b1111 ;"
b1111000 Q
10
b1111 2
b1111 !"
b110 $"
b10001100 h
b1111000 i
b1110100 z
b10011000111 D"
b11100 )"
1=
1<
#2395
1&
#2400
0&
#2405
1&
#2410
0&
#2415
1&
#2420
0&
#2425
1&
#2430
0&
#2435
1&
#2436
0=
0<
#2440
0&
#2445
1&
#2450
0&
#2455
1&
#2460
0&
#2465
1&
#2470
0&
#2475
1&
#2478
b0 ;"
19"
b1110100 /"
b11101 <"
b1110100 /
b11101 1
00
b0 2
b0 !"
0."
14
b1110100 6
b1110100 }
b1110100 *"
b1110100 8"
b10011000110 D"
b0 $"
b11101 )"
1=
1<
#2480
0&
#2485
1&
#2490
0&
#2495
1&
#2500
0&
#2505
1&
#2510
0&
#2515
1&
#2520
0&
0=
0<
#2525
1&
#2530
0&
#2535
1&
#2540
0&
#2545
1&
#2550
0&
#2555
1&
#2560
0&
#2562
b10011 n
b10000010011 l
b10000000010000010000010011 m
09"
b10000000010000010000010011 5
b10000000010000010000010011 G
1."
04
b1 $"
b10000000010000010000010011 >
b10000000010000010000010011 ="
b10011000101 D"
b11110 )"
1=
1<
#2565
1&
#2570
0&
#2575
1&
#2580
0&
#2585
1&
#2590
0&
#2595
1&
#2600
0&
#2604
0=
0<
#2605
1&
#2610
0&
#2615
1&
#2620
0&
#2625
1&
#2630
0&
#2635
1&
#2640
0&
#2645
1&
#2646
b0 ?
b1100000000000 J
b111111010000000000000000000 U
b1011111100000 '"
b1011111100000 L
b100000 6"
b1011111000000 c
b10011 m
b1 g
b10000000010000000001110100 h
b0 /"
b11000000000 <"
b0 /
b11000000000 1
b1100000000000 b
b100000 d
b1100000000000 T
1S
b0 M
b1100000000000 6
b1100000000000 }
b1100000000000 *"
b1100000000000 8"
b1100000000000 {
1_
0V
b10000000010000000000000000 e
b100000 p
b101000 f
b101000 r
b10000000000100000 o
b0 N
b1000 P
b0 a
b1 `
b10011000100 D"
b10 $"
b10000000010000010000010011 |
b11111 )"
1=
1<
#2650
0&
#2655
1&
#2660
0&
#2665
1&
#2670
0&
#2675
1&
#2680
0&
#2685
1&
#2688
0=
0<
#2690
0&
#2695
1&
#2700
0&
#2705
1&
#2710
0&
#2715
1&
#2720
0&
#2725
1&
#2730
1I
b11 $"
b10011000011 D"
b100000 )"
0&
1=
1<
#2735
1&
#2740
0&
#2745
1&
#2750
0&
#2755
1&
#2760
0&
#2765
1&
#2770
0&
#2772
0=
0<
#2775
1&
#2780
0&
#2785
1&
#2790
0&
#2795
1&
#2800
0&
#2805
1&
#2810
0&
#2814
b0x000000000 ?
0I
19"
b1111000 /"
b11110 <"
b1111000 /
b11110 1
b1111100 Q
0."
14
b1111000 6
b1111000 }
b1111000 *"
b1111000 8"
b10011000010 D"
b0 $"
b10000000010000000001111000 h
b1111100 i
b1111000 z
b100001 )"
1=
1<
#2815
1&
#2820
0&
#2825
1&
#2830
0&
#2835
1&
#2840
0&
#2845
1&
#2850
0&
#2855
1&
#2856
0=
0<
#2860
0&
#2865
1&
#2870
0&
#2875
1&
#2880
0&
#2885
1&
#2890
0&
#2895
1&
#2898
1E
b11111111111111111111111110110111 m
b10110111 n
b11110110111 l
09"
b100000000000000000011110110111 5
b100000000000000000011110110111 G
1."
04
b1 $"
b100000000000000000011110110111 >
b100000000000000000011110110111 ="
b10011000001 D"
b100010 )"
1=
1<
#2900
0&
#2905
1&
#2910
0&
#2915
1&
#2920
0&
#2925
1&
#2930
0&
#2935
1&
#2940
0&
0=
0<
#2945
1&
#2950
0&
#2955
1&
#2960
0&
#2965
1&
#2970
0&
#2975
1&
#2980
0&
#2982
b0 ?
b100000000000000000000000000000 J
b100000000000000000000001111000 h
b1010111100000 c
b1100111100000 {
b100000 6"
b11100000 /"
b11001111000 <"
b11100000 /
b11001111000 1
b1100111100000 b
b1000000000 d
b1100111100000 T
b1100111100000 6
b1100111100000 }
b1100111100000 *"
b1100111100000 8"
0_
1Y
b100000000000000000000000000000 e
b1000000000 p
b1000001111 f
b101000001110 r
b1000000000 o
b0 O
b1111 P
b10000 `
b10011000000 D"
b10 $"
b100000000000000000011110110111 |
b100011 )"
1=
1<
#2985
1&
#2990
0&
#2995
1&
#3000
0&
#3005
1&
#3010
0&
#3015
1&
#3020
0&
#3024
0=
0<
#3025
1&
#3030
0&
#3035
1&
#3040
0&
#3045
1&
#3050
0&
#3055
1&
#3060
0&
#3065
1&
